Сайт - Исследование повторяемости ветров в южной части Российской Федерации
…
year
год

month
месяц

Данные представляют собой объединенную таблицу, в которой каждая строка соответствует одному наблюдению, а названия столбцов – переменным.1 Такие данные удобно преобразовывать и использовать в дальнейшем для графиков.

Код

wind_2021

# A tibble: 90,720 × 5
     lat   lon wind_value  year month 
   <dbl> <dbl>      <dbl> <dbl> <fct> 
 1    60  45          1    2021 апрель
 2    60  45.2       52.4  2021 апрель
 3    60  45.5      102.   2021 апрель
 4    60  45.8      153    2021 апрель
 5    60  46        194.   2021 апрель
 6    60  46.2      197.   2021 апрель
 7    60  46.5      155.   2021 апрель
 8    60  46.8      124.   2021 апрель
 9    60  47        119.   2021 апрель
10    60  47.2      115.   2021 апрель
# … with 90,710 more rows
…
Из растровых данных легко сделать таблицу высот. Здесь \(x\) и \(y\) соответствуют координатам, а \(z\) – высотам над уровнем моря.

Код

elevation_tibble <- as.data.frame(elevation_df, xy = TRUE) 
elevation_tibble %<>% as_tibble()
names(elevation_tibble)[3] <- "z"

elevation_tibble

# A tibble: 4,165,928 × 3
       x     y     z
   <dbl> <dbl> <dbl>
 1  45.0  61.6   160
 2  45.0  61.6   167
 3  45.1  61.6   173
 4  45.1  61.6   172
 5  45.1  61.6   161
 6  45.1  61.6   147
 7  45.1  61.6   138
 8  45.2  61.6   143
 9  45.2  61.6   155
10  45.2  61.6   161
# … with 4,165,918 more rows
…
